# 3ds Max Wavefront OBJ Exporter v0.97b - (c)2007 guruware
# File Created: 04.09.2015 19:12:25

newmtl wire_027177148
	Ns 32
	d 1
	Tr 0
	Tf 1 1 1
	illum 2
	Ka 0.1059 0.6941 0.5804
	Kd 0.1059 0.6941 0.5804
	Ks 0.3500 0.3500 0.3500
